<svg width="14" height="14" viewBox="0 0 14 14" fill="none" xmlns="http://www.w3.org/2000/svg">
<path d="M10.7188 0H3.28125C1.47 0 0 1.47 0 3.28125V10.7188C0 12.53 1.47 14 3.28125 14H10.7188C12.53 14 14 12.53 14 10.7188V3.28125C14 1.47 12.53 0 10.7188 0ZM7 10.0625C5.30906 10.0625 3.9375 8.69094 3.9375 7C3.9375 5.30906 5.30906 3.9375 7 3.9375C8.69094 3.9375 10.0625 5.30906 10.0625 7C10.0625 8.69094 8.69094 10.0625 7 10.0625ZM10.8281 4.15625C10.2834 4.15625 9.84375 3.71656 9.84375 3.17188C9.84375 2.62719 10.2834 2.1875 10.8281 2.1875C11.3728 2.1875 11.8125 2.62719 11.8125 3.17188C11.8125 3.71656 11.3728 4.15625 10.8281 4.15625Z" fill="black"/>
</svg>
