<?xml version="1.0" encoding="utf-8"?>
<!-- Generator: Adobe Illustrator 23.0.3, SVG Export Plug-In . SVG Version: 6.00 Build 0)  -->
<svg version="1.1" id="Слой_1" xmlns="http://www.w3.org/2000/svg" xmlns:xlink="http://www.w3.org/1999/xlink" x="0px" y="0px"
	 viewBox="0 0 20 22" style="enable-background:new 0 0 20 22;" xml:space="preserve">
<style type="text/css">
	.st0{fill-rule:evenodd;clip-rule:evenodd;}
</style>
<path class="st0" d="M17,2.4h-2.4V1c0-0.3-0.3-0.6-0.6-0.6c-0.3,0-0.6,0.3-0.6,0.6v1.4H6.6V1c0-0.3-0.3-0.6-0.6-0.6
	C5.7,0.4,5.4,0.7,5.4,1v1.4H3C1.6,2.4,0.4,3.6,0.4,5v14c0,1.4,1.2,2.6,2.6,2.6h14c1.4,0,2.6-1.2,2.6-2.6V5C19.6,3.6,18.4,2.4,17,2.4
	z M3,3.6h2.4V5c0,0.3,0.3,0.6,0.6,0.6c0.3,0,0.6-0.3,0.6-0.6V3.6h6.8V5c0,0.3,0.3,0.6,0.6,0.6c0.3,0,0.6-0.3,0.6-0.6V3.6H17
	c0.8,0,1.4,0.6,1.4,1.4v3.4H1.6V5C1.6,4.2,2.2,3.6,3,3.6z M17,20.4H3c-0.8,0-1.4-0.6-1.4-1.4V9.6h16.8V19
	C18.4,19.8,17.8,20.4,17,20.4z"/>
</svg>
