<svg width="22" height="22" viewBox="0 0 22 22" fill="none" xmlns="http://www.w3.org/2000/svg">
<path fill-rule="evenodd" clip-rule="evenodd" d="M11 1.65001C5.83611 1.65001 1.64998 5.83614 1.64998 11C1.64998 16.1639 5.83611 20.35 11 20.35C16.1638 20.35 20.35 16.1639 20.35 11C20.35 5.83614 16.1638 1.65001 11 1.65001ZM0.349976 11C0.349976 5.11817 5.11814 0.350006 11 0.350006C16.8818 0.350006 21.65 5.11817 21.65 11C21.65 16.8818 16.8818 21.65 11 21.65C5.11814 21.65 0.349976 16.8818 0.349976 11Z" fill="black"/>
<path fill-rule="evenodd" clip-rule="evenodd" d="M11 4.35001C11.359 4.35001 11.65 4.64102 11.65 5.00001V10.5983L15.2907 12.4186C15.6118 12.5792 15.7419 12.9696 15.5814 13.2907C15.4208 13.6118 15.0304 13.7419 14.7093 13.5814L10.7093 11.5814C10.4891 11.4713 10.35 11.2462 10.35 11V5.00001C10.35 4.64102 10.641 4.35001 11 4.35001Z" fill="black"/>
</svg>
