<?xml version="1.0" encoding="utf-8"?>
<!-- Generator: Adobe Illustrator 23.0.3, SVG Export Plug-In . SVG Version: 6.00 Build 0)  -->
<svg version="1.1" id="Слой_1" xmlns="http://www.w3.org/2000/svg" xmlns:xlink="http://www.w3.org/1999/xlink" x="0px" y="0px"
	 viewBox="0 0 18 19" style="enable-background:new 0 0 18 19;" xml:space="preserve">
<g>
	<path d="M16.3,12.7c-0.9-0.9-2-1.3-3.3-1.3H5c-1.2,0-2.4,0.5-3.3,1.3c-0.9,0.9-1.3,2-1.3,3.3v2c0,0.3,0.3,0.6,0.6,0.6
		s0.6-0.3,0.6-0.6v-2c0-0.9,0.4-1.8,1-2.4c0.6-0.6,1.5-1,2.4-1h8c0.9,0,1.8,0.4,2.4,1c0.6,0.6,1,1.5,1,2.4v2c0,0.3,0.3,0.6,0.6,0.6
		s0.6-0.3,0.6-0.6v-2C17.6,14.8,17.1,13.6,16.3,12.7z"/>
	<path d="M9,9.6c2.5,0,4.6-2.1,4.6-4.6S11.5,0.4,9,0.4C6.5,0.4,4.4,2.5,4.4,5S6.5,9.6,9,9.6z M9,1.6c1.9,0,3.4,1.5,3.4,3.4
		S10.9,8.4,9,8.4S5.6,6.9,5.6,5S7.1,1.6,9,1.6z"/>
</g>
</svg>
